5/28/18 7:11:37 PM, Info: Initializing SIMPLSharp Services...
5/28/18 7:11:37 PM, Info: ProjectInfo successfully initialized.
5/28/18 7:11:38 PM, Info: Verifying archive C:\Dev\Crestron Certification 2018\Residences\Backend\SPlsWork\AffinityClientConnection.clz...
5/28/18 7:11:40 PM, Info: Saving project information...
5/28/18 7:11:43 PM, Info: Commiting verification transaction...
5/28/18 7:11:43 PM, Info: Saving project information...
5/28/18 9:37:29 PM, Info: Initializing SIMPLSharp Services...
5/28/18 9:37:29 PM, Info: ProjectInfo successfully initialized.
5/28/18 9:37:29 PM, Info: Verifying archive C:\Dev\Crestron Certification 2018\Residences\Backend\SPlsWork\AffinityClientConnection.clz...
5/28/18 9:37:30 PM, Info: Saving project information...
5/28/18 9:37:33 PM, Info: Commiting verification transaction...
5/28/18 9:37:33 PM, Info: Saving project information...
5/28/18 9:39:59 PM, Info: Terminating SIMPLSharp Services
5/28/18 9:39:59 PM, Info: Saving project information...
5/28/18 9:39:59 PM, Info: Terminating SIMPLSharp Services
