Crosspoint listing for C:\Dev\Crestron Certification 2018\Lobby\Backend\Lobby Central Processor BL.SMW

Note:  Crosspoint symbols with EquipID or ControlID set to 0d are not routeable.

Equipment Crosspoint Routing.                                                                       EquipID
===========================================================================================================
S-4.1.1                                                                                             102

Control Crosspoint Routing.                                                                         ControlID
=============================================================================================================
S-3.1.1                                                                                             101
S-6.3 in macro S-6.4 (Module File C:\Program Files (x86)\Crestron\Cresdb\Modules\Fusion SS          30001
I v2.5- 3 series only.cmc)                                                                          

