Crosspoint listing for C:\Dev\Crestron Certification 2018\Collaboration Boardroom\Backend\Collaboration Boardroom BL.SMW

Note:  Crosspoint symbols with EquipID or ControlID set to 0d are not routeable.

Equipment Crosspoint Routing.                                                                       EquipID
===========================================================================================================
No symbols of this type found in the program

Control Crosspoint Routing.                                                                         ControlID
=============================================================================================================
S-6.3 in macro S-9.2 (Module File C:\Program Files (x86)\Crestron\Cresdb\Modules\Fusion SS          50001
I v2.5- 3 series only.cmc)                                                                          

