5/8/18 7:16:58 AM, Info: Initializing SIMPLSharp Services...
5/8/18 7:16:58 AM, Info: ProjectInfo successfully initialized.
5/8/18 7:17:00 AM, Info: Verifying archive C:\Dev\Crestron Certification 2018\Collaboration Boardroom\Backend\SPlsWork\SSFileOps.clz...
5/8/18 7:17:00 AM, Info: Saving project information...
5/8/18 7:17:03 AM, Info: Commiting verification transaction...
5/8/18 7:17:03 AM, Info: Saving project information...
5/8/18 8:26:59 AM, Info: Terminating SIMPLSharp Services
